[
    {
        "type": "picture",
        "value": [
            {
                "name": "sbw1_start",
                "alt": "Path to a small wooden bridge at the start of the South Bucks Way",
                "caption": "The start of the walk"
            },
            {
                "name": "sbw1_sign",
                "alt": "South Bucks Way sign, a yellow arrow with a Swan inside it",
                "caption": "South Bucks Way sign"
            }
        ]
    },
    {
        "type": "picture",
        "value": [
            {
                "name": "sbw1_sculpture",
                "alt": "odd looking sculpture carved from a tree trunk",
                "caption": "Odd sculpture near the start"
            },
            {
                "name": "sbw1_tunnel",
                "alt": "A brick tunnel under the railway station at Denham",
                "caption": "Tunnel below Denham Station"
            }
        ]
    },
    {
        "type": "picture",
        "value": [
            {
                "name": "sbw1_field",
                "alt": "Dry field due to prolonged heat outside  Chalfont St Giles",
                "caption": "Parched field near Chalfont St Giles"
            }
        ]
    }
]